…
alien_heights <- tibble(
  type = rep("alien", n),
  height = rnorm(n, mean = 127.0, sd = 9.4)
)
heights <- dplyr::bind_rows(boy_heights, girl_heights, alien_heights) %>% 
  mutate(
    type = factor(type),
    height_units = rep("cm", 3 * n),
    age = rep(14, 3 * n),
    age_units = rep("years", 3 * n)
  )
heights
```

    ## # A tibble: 150 x 5
    ##    type  height height_units   age age_units
    ##    <fct>  <dbl> <chr>        <dbl> <chr>    
    ##  1 boy     168. cm              14 years    
    ##  2 boy     181. cm              14 years    
    ##  3 boy     184. cm              14 years    
    ##  4 boy     162. cm              14 years    
    ##  5 boy     168. cm              14 years    
    ##  6 boy     174. cm              14 years    
    ##  7 boy     158. cm              14 years    
    ##  8 boy     175. cm              14 years    
    ##  9 boy     172. cm              14 years    
    ## 10 boy     169. cm              14 years    
    ## # … with 140 more rows
…
