…
    Year = lubridate::year(Day)
  )
#> Parsed with column specification:
#> cols(
#>   Day = col_date(format = "")
#> )
print(sprintf(
  "Summary: %d events from %s to %s", 
  length(events$Day), 
  min(events$Day), 
  max(events$Day)
))
#> [1] "Summary: 77 events from 2016-01-16 to 2019-03-12"
events
#> # A tibble: 77 x 6
#>    Day        DayOfWeek DayOfWeekLabel Month MonthLabel  Year
#>    <date>         <dbl> <ord>          <dbl> <ord>      <dbl>
#>  1 2019-03-12         3 Tue                3 Mar         2019
#>  2 2019-03-06         4 Wed                3 Mar         2019
#>  3 2019-02-19         3 Tue                2 Feb         2019
#>  4 2019-01-16         4 Wed                1 Jan         2019
#>  5 2019-01-03         5 Thu                1 Jan         2019
#>  6 2018-12-11         3 Tue               12 Dec         2018
#>  7 2018-12-04         3 Tue               12 Dec         2018
#>  8 2018-11-14         4 Wed               11 Nov         2018
#>  9 2018-11-07         4 Wed               11 Nov         2018
#> 10 2018-10-16         3 Tue               10 Oct         2018
#> # … with 67 more rows
```
…
